class _UnitKeyItem_fld 
{
class   _base_fld // Inherited class at offset 0x0
{

          unsigned long	m_dwIndex;		 // this+0x0
          char[0x40]	m_strCode;		 // this+0x4

};

        int	m_bExist;		 // this+0x44
        char[0x40]	m_strModel;		 // this+0x48
        int	m_nIconIDX;		 // this+0x88
        char[0x40]	m_strName;		 // this+0x8C
        char[0x40]	m_strCivil;		 // this+0xCC
        int	m_nFRAType;		 // this+0x10C
        int	m_bSell;		 // this+0x110
        int	m_bExchange;		 // this+0x114
        int	m_bGround;		 // this+0x118
        int	m_bStoragePossible;		 // this+0x11C
        int	m_bUseableNormalAcc;		 // this+0x120
        char[0x40]	m_strTooltipIndex;		 // this+0x124
        
};
