class _CashShop_fld 
{
class   _base_fld // Inherited class at offset 0x0
{

          unsigned long	m_dwIndex;		 // this+0x0
          char[0x40]	m_strCode;		 // this+0x4

};

        char[0x40]	m_strCsItemCode;		 // this+0x44
        int	m_nCsPrice;		 // this+0x84
        int	m_bView;		 // this+0x88
        char[0x40]	m_strItemPart;		 // this+0x8C
        int	m_nCsDiscount;		 // this+0xCC
        int[0x8]	m_nCsEvent;		 // this+0xD0
        
};
