class _LinkItem_Result_fld 
{
class   _base_fld // Inherited class at offset 0x0
{

          unsigned long	m_dwIndex;		 // this+0x0
          char[0x40]	m_strCode;		 // this+0x4

};


enum   <unnamed-tag> int
{
          int	eResultfMax;		 // constant 0x64

};
        char[0x40][0x64]	m_strLinkItemOut;		 // this+0x44
        
};
