class _map_fld 
{
class   _base_fld // Inherited class at offset 0x0
{

          unsigned long	m_dwIndex;		 // this+0x0
          char[0x40]	m_strCode;		 // this+0x4

};

        char[0x40]	m_strFileName;		 // this+0x44
        int	m_nMapType;		 // this+0x84
        int	m_nLayerNum;		 // this+0x88
        int	m_nRaceVillageCode;		 // this+0x8C
        int	m_nMonsterSetFileNum;		 // this+0x90
        int	m_nMapClass;		 // this+0x94
        int	m_nRadius;		 // this+0x98
        int	m_nLevelLimit;		 // this+0x9C
        int	m_nUpLevelLim;		 // this+0xA0
        int	m_nPotionLim;		 // this+0xA4
        int[0x3]	m_nRacePvpUsable;		 // this+0xA8

};
