class _mon_active_fld 
{
class   _base_fld // Inherited class at offset 0x0
{

          unsigned long	m_dwIndex;		 // this+0x0
          char[0x40]	m_strCode;		 // this+0x4

};

        unsigned long	m_dwRegenTime;		 // this+0x44
        unsigned long	m_dwRegenLimNum;		 // this+0x48
        unsigned long	m_dwRegenProp;		 // this+0x4C
        unsigned long	m_dwRegenMinNum;		 // this+0x50
        unsigned long	m_dwStdKill;		 // this+0x54
        unsigned long	m_dwRegenMaxNum;		 // this+0x58
        
};
