class _UnitBullet_fld 
{
class   _base_fld // Inherited class at offset 0x0
{

          unsigned long	m_dwIndex;		 // this+0x0
          char[0x40]	m_strCode;		 // this+0x4

};

        char[0x40]	m_strModle;		 // this+0x44
        int	m_nIconIDX;		 // this+0x84
        char[0x40]	m_strName;		 // this+0x88
        int	m_nWPType;		 // this+0xC8
        int	m_bAbr;		 // this+0xCC
        int	m_nDurUnit;		 // this+0xD0
        int	m_nMoney;		 // this+0xD4
        int	m_nStdPrice;		 // this+0xD8
        int	m_nStdPoint;		 // this+0xDC
        float	m_fGAAF;		 // this+0xE0
        char[0x40]	m_strEffectIndex;		 // this+0xE4
        char[0x40]	m_strTooltipIndex;		 // this+0x124
        
};
